M48
INCH,TZ
T1C0.0157
T2C0.0197
T3C0.0315
T4C0.0394
%
G90
G05
T1
X50200Y-29750
X50450Y-31850
X50550Y-32500
X50787Y-29134
X51350Y-34600
X51514Y-32836
X51651Y-29100
X53850Y-32800
X53900Y-31850
X54820Y-30570
X58280Y-27953
T2
X57610Y-26966
X57610Y-27459
X57610Y-27951
X57610Y-28443
X57610Y-28935
T3
X46325Y-31125
X46325Y-33046
X64173Y-25591
X65157Y-25591
T4
X64400Y-35200
X65400Y-35200
X60200Y-27900
X61200Y-27900
X60200Y-35200
X61200Y-35200
X49500Y-36500
X49500Y-37500
X49500Y-38500
X50500Y-36500
X50500Y-37500
X50500Y-38500
X51500Y-36500
X51500Y-37500
X51500Y-38500
X52500Y-36500
X52500Y-37500
X52500Y-38500
X53500Y-36500
X53500Y-37500
X53500Y-38500
X54500Y-36500
X54500Y-37500
X54500Y-38500
X55500Y-36500
X55500Y-37500
X55500Y-38500
X56500Y-36500
X56500Y-37500
X56500Y-38500
X46300Y-35700
X47300Y-35700
X64400Y-27900
X65400Y-27900
X56800Y-31600
X56800Y-32600
X56800Y-33600
X44400Y-28346
X45400Y-28346
X46400Y-28346
X47400Y-28346
X48400Y-28346
X49400Y-28346
X50400Y-28346
X51400Y-28346
T0
M30
