EESchema Schematic File Version 4
EELAYER 30 0
EELAYER END
$Descr A4 11693 8268
encoding utf-8
Sheet 1 1
Title "Matchstick v0.1"
Date "2020-01-20"
Rev "v01"
Comp ""
Comment1 ""
Comment2 "creativecommons.org/licenses/by/4.0/"
Comment3 "License: CC BY 4.0"
Comment4 "Author: Maciej Sobieraj"
$EndDescr
$Comp
L MCU_ST_STM32F3:STM32F303K8Tx U2
U 1 1 5E07E6F4
P 6250 2550
F 0 "U2" H 6650 1350 50  0000 C CNN
F 1 "STM32F303K8Tx" H 6650 1500 50  0000 C CNN
F 2 "Package_QFP:LQFP-32_7x7mm_P0.8mm" H 5750 1650 50  0001 R CNN
F 3 "http://www.st.com/st-web-ui/static/active/en/resource/technical/document/datasheet/DM00092070.pdf" H 6250 2550 50  0001 C CNN
	1    6250 2550
	1    0    0    -1  
$EndComp
$Comp
L power:VDD #PWR024
U 1 1 5E17157F
P 8250 1950
F 0 "#PWR024" H 8250 1800 50  0001 C CNN
F 1 "VDD" H 8267 2123 50  0000 C CNN
F 2 "" H 8250 1950 50  0001 C CNN
F 3 "" H 8250 1950 50  0001 C CNN
	1    8250 1950
	1    0    0    -1  
$EndComp
$Comp
L power:GND #PWR015
U 1 1 5E172DC5
P 6150 4050
F 0 "#PWR015" H 6150 3800 50  0001 C CNN
F 1 "GND" H 6155 3877 50  0000 C CNN
F 2 "" H 6150 4050 50  0001 C CNN
F 3 "" H 6150 4050 50  0001 C CNN
	1    6150 4050
	1    0    0    -1  
$EndComp
Wire Wire Line
	6150 3550 6150 4050
$Comp
L power:GND #PWR018
U 1 1 5E174A91
P 6250 4050
F 0 "#PWR018" H 6250 3800 50  0001 C CNN
F 1 "GND" H 6255 3877 50  0000 C CNN
F 2 "" H 6250 4050 50  0001 C CNN
F 3 "" H 6250 4050 50  0001 C CNN
	1    6250 4050
	1    0    0    -1  
$EndComp
Wire Wire Line
	6250 3550 6250 4050
$Comp
L power:GND #PWR013
U 1 1 5E178B3D
P 4650 2050
F 0 "#PWR013" H 4650 1800 50  0001 C CNN
F 1 "GND" V 4655 1922 50  0000 R CNN
F 2 "" H 4650 2050 50  0001 C CNN
F 3 "" H 4650 2050 50  0001 C CNN
	1    4650 2050
	0    1    1    0   
$EndComp
Wire Wire Line
	5650 2050 5250 2050
Wire Wire Line
	4950 2050 4650 2050
$Comp
L Device:Crystal Y1
U 1 1 5E17A0E0
P 3150 2550
F 0 "Y1" V 3150 2700 50  0000 L CNN
F 1 "Crystal_ECS-80-20-4X" V 3400 2450 50  0000 L CNN
F 2 "Crystal:Crystal_HC49-U_Vertical" H 3150 2550 50  0001 C CNN
F 3 "~" H 3150 2550 50  0001 C CNN
	1    3150 2550
	0    1    1    0   
$EndComp
Wire Wire Line
	3150 2400 3550 2400
Wire Wire Line
	3550 2400 3550 2450
Wire Wire Line
	3550 2450 5650 2450
Wire Wire Line
	5650 2550 3550 2550
Wire Wire Line
	3550 2550 3550 2700
Wire Wire Line
	3550 2700 3150 2700
$Comp
L Device:C C1
U 1 1 5E17B364
P 2550 2400
F 0 "C1" V 2298 2400 50  0000 C CNN
F 1 "30pF" V 2389 2400 50  0000 C CNN
F 2 "Capacitor_SMD:C_0805_2012Metric_Pad1.15x1.40mm_HandSolder" H 2588 2250 50  0001 C CNN
F 3 "~" H 2550 2400 50  0001 C CNN
	1    2550 2400
	0    1    1    0   
$EndComp
$Comp
L Device:C C2
U 1 1 5E17C176
P 2550 2700
F 0 "C2" V 2800 2700 50  0000 C CNN
F 1 "30pF" V 2700 2700 50  0000 C CNN
F 2 "Capacitor_SMD:C_0805_2012Metric_Pad1.15x1.40mm_HandSolder" H 2588 2550 50  0001 C CNN
F 3 "~" H 2550 2700 50  0001 C CNN
	1    2550 2700
	0    1    1    0   
$EndComp
$Comp
L power:GND #PWR03
U 1 1 5E17CE3A
P 2000 2400
F 0 "#PWR03" H 2000 2150 50  0001 C CNN
F 1 "GND" V 2005 2272 50  0000 R CNN
F 2 "" H 2000 2400 50  0001 C CNN
F 3 "" H 2000 2400 50  0001 C CNN
	1    2000 2400
	0    1    1    0   
$EndComp
$Comp
L power:GND #PWR04
U 1 1 5E17D493
P 2000 2700
F 0 "#PWR04" H 2000 2450 50  0001 C CNN
F 1 "GND" V 2005 2572 50  0000 R CNN
F 2 "" H 2000 2700 50  0001 C CNN
F 3 "" H 2000 2700 50  0001 C CNN
	1    2000 2700
	0    1    1    0   
$EndComp
Wire Wire Line
	2700 2400 3150 2400
Connection ~ 3150 2400
Wire Wire Line
	2700 2700 3150 2700
Connection ~ 3150 2700
Wire Wire Line
	2400 2700 2000 2700
Wire Wire Line
	2400 2400 2000 2400
$Comp
L power:GND #PWR025
U 1 1 5E1B82AD
P 8250 2600
F 0 "#PWR025" H 8250 2350 50  0001 C CNN
F 1 "GND" H 8255 2427 50  0000 C CNN
F 2 "" H 8250 2600 50  0001 C CNN
F 3 "" H 8250 2600 50  0001 C CNN
	1    8250 2600
	1    0    0    -1  
$EndComp
$Comp
L Device:C C7
U 1 1 5E1B88AC
P 8250 2300
F 0 "C7" H 8135 2254 50  0000 R CNN
F 1 "100nF" H 8135 2345 50  0000 R CNN
F 2 "Capacitor_SMD:C_0805_2012Metric_Pad1.15x1.40mm_HandSolder" H 8288 2150 50  0001 C CNN
F 3 "~" H 8250 2300 50  0001 C CNN
	1    8250 2300
	-1   0    0    1   
$EndComp
$Comp
L Device:C C8
U 1 1 5E1B9165
P 8800 2300
F 0 "C8" H 8915 2346 50  0000 L CNN
F 1 "100nF" H 8915 2255 50  0000 L CNN
F 2 "Capacitor_SMD:C_0805_2012Metric_Pad1.15x1.40mm_HandSolder" H 8838 2150 50  0001 C CNN
F 3 "~" H 8800 2300 50  0001 C CNN
	1    8800 2300
	1    0    0    -1  
$EndComp
Wire Wire Line
	8250 1950 8250 2150
Wire Wire Line
	8250 2450 8250 2600
Wire Wire Line
	8250 2150 8800 2150
Connection ~ 8250 2150
Wire Wire Line
	8250 2450 8800 2450
Connection ~ 8250 2450
Wire Wire Line
	6750 3150 7450 3150
Wire Wire Line
	6750 3250 7450 3250
$Comp
L Device:C C6
U 1 1 5E1E8960
P 4700 1300
F 0 "C6" V 4448 1300 50  0000 C CNN
F 1 "100nF" V 4539 1300 50  0000 C CNN
F 2 "Capacitor_SMD:C_0805_2012Metric_Pad1.15x1.40mm_HandSolder" H 4738 1150 50  0001 C CNN
F 3 "~" H 4700 1300 50  0001 C CNN
	1    4700 1300
	1    0    0    -1  
$EndComp
$Comp
L power:GND #PWR014
U 1 1 5E1EAE35
P 4700 1050
F 0 "#PWR014" H 4700 800 50  0001 C CNN
F 1 "GND" V 4705 922 50  0000 R CNN
F 2 "" H 4700 1050 50  0001 C CNN
F 3 "" H 4700 1050 50  0001 C CNN
	1    4700 1050
	-1   0    0    1   
$EndComp
Wire Wire Line
	5650 1850 5350 1850
Wire Wire Line
	5350 1850 5350 1550
Wire Wire Line
	4700 1550 4700 1450
$Comp
L power:VDD #PWR017
U 1 1 5E22BB6D
P 6250 1200
F 0 "#PWR017" H 6250 1050 50  0001 C CNN
F 1 "VDD" H 6267 1373 50  0000 C CNN
F 2 "" H 6250 1200 50  0001 C CNN
F 3 "" H 6250 1200 50  0001 C CNN
	1    6250 1200
	1    0    0    -1  
$EndComp
$Comp
L power:VDDA #PWR029
U 1 1 5E22C9C0
P 9900 2000
F 0 "#PWR029" H 9900 1850 50  0001 C CNN
F 1 "VDDA" H 9917 2173 50  0000 C CNN
F 2 "" H 9900 2000 50  0001 C CNN
F 3 "" H 9900 2000 50  0001 C CNN
	1    9900 2000
	1    0    0    -1  
$EndComp
$Comp
L Device:C C9
U 1 1 5E22DE58
P 9900 2250
F 0 "C9" H 10015 2296 50  0000 L CNN
F 1 "100nF" H 10015 2205 50  0000 L CNN
F 2 "Capacitor_SMD:C_0805_2012Metric_Pad1.15x1.40mm_HandSolder" H 9938 2100 50  0001 C CNN
F 3 "~" H 9900 2250 50  0001 C CNN
	1    9900 2250
	1    0    0    -1  
$EndComp
$Comp
L power:GND #PWR030
U 1 1 5E22F1AD
P 9900 2500
F 0 "#PWR030" H 9900 2250 50  0001 C CNN
F 1 "GND" H 9905 2327 50  0000 C CNN
F 2 "" H 9900 2500 50  0001 C CNN
F 3 "" H 9900 2500 50  0001 C CNN
	1    9900 2500
	1    0    0    -1  
$EndComp
Wire Wire Line
	9900 2100 9900 2000
Wire Wire Line
	9900 2400 9900 2500
Wire Wire Line
	6250 1650 6250 1350
Wire Wire Line
	6150 1650 6150 1350
Wire Wire Line
	6150 1350 6250 1350
Connection ~ 6250 1350
Wire Wire Line
	6250 1350 6250 1200
$Comp
L power:VDDA #PWR020
U 1 1 5E23C4A6
P 6500 1550
F 0 "#PWR020" H 6500 1400 50  0001 C CNN
F 1 "VDDA" V 6517 1678 50  0000 L CNN
F 2 "" H 6500 1550 50  0001 C CNN
F 3 "" H 6500 1550 50  0001 C CNN
	1    6500 1550
	0    1    1    0   
$EndComp
Wire Wire Line
	6350 1650 6350 1550
Wire Wire Line
	6500 1550 6350 1550
Connection ~ 6350 1550
$Comp
L Connector:Conn_01x05_Female J7
U 1 1 5E252CDC
P 8700 4300
F 0 "J7" H 8728 4326 50  0000 L CNN
F 1 "MOLEX_PicoBlade_SWD " H 8728 4235 50  0000 L CNN
F 2 "Connector_Molex:Molex_PicoBlade_53047-0510_1x05_P1.25mm_Vertical" H 8700 4300 50  0001 C CNN
F 3 "~" H 8700 4300 50  0001 C CNN
	1    8700 4300
	1    0    0    -1  
$EndComp
$Comp
L power:VDD #PWR026
U 1 1 5E257647
P 8250 4100
F 0 "#PWR026" H 8250 3950 50  0001 C CNN
F 1 "VDD" V 8268 4227 50  0000 L CNN
F 2 "" H 8250 4100 50  0001 C CNN
F 3 "" H 8250 4100 50  0001 C CNN
	1    8250 4100
	0    -1   -1   0   
$EndComp
Wire Wire Line
	8250 4100 8500 4100
Wire Wire Line
	8200 4500 8500 4500
$Comp
L power:GND #PWR023
U 1 1 5E2654AB
P 8200 4300
F 0 "#PWR023" H 8200 4050 50  0001 C CNN
F 1 "GND" V 8205 4172 50  0000 R CNN
F 2 "" H 8200 4300 50  0001 C CNN
F 3 "" H 8200 4300 50  0001 C CNN
	1    8200 4300
	0    1    1    0   
$EndComp
Wire Wire Line
	8200 4300 8500 4300
Wire Wire Line
	8200 4400 8500 4400
Wire Wire Line
	8200 4200 8500 4200
$Comp
L power:VDD #PWR012
U 1 1 5E2AC879
P 4300 6300
F 0 "#PWR012" H 4300 6150 50  0001 C CNN
F 1 "VDD" V 4317 6428 50  0000 L CNN
F 2 "" H 4300 6300 50  0001 C CNN
F 3 "" H 4300 6300 50  0001 C CNN
	1    4300 6300
	0    1    1    0   
$EndComp
$Comp
L power:GND #PWR06
U 1 1 5E2C37E0
P 3450 7200
F 0 "#PWR06" H 3450 6950 50  0001 C CNN
F 1 "GND" H 3455 7027 50  0000 C CNN
F 2 "" H 3450 7200 50  0001 C CNN
F 3 "" H 3450 7200 50  0001 C CNN
	1    3450 7200
	1    0    0    -1  
$EndComp
Wire Wire Line
	3750 6300 3900 6300
Wire Wire Line
	3450 7050 3450 6600
$Comp
L Device:C C5
U 1 1 5E2CFC59
P 3900 6750
F 0 "C5" H 4015 6796 50  0000 L CNN
F 1 "10uF" H 4015 6705 50  0000 L CNN
F 2 "Capacitor_SMD:C_0805_2012Metric_Pad1.15x1.40mm_HandSolder" H 3938 6600 50  0001 C CNN
F 3 "~" H 3900 6750 50  0001 C CNN
	1    3900 6750
	1    0    0    -1  
$EndComp
Wire Wire Line
	3450 7050 3900 7050
Wire Wire Line
	3900 7050 3900 6900
Connection ~ 3450 7050
Wire Wire Line
	3900 6600 3900 6300
Connection ~ 3900 6300
$Comp
L power:GND #PWR02
U 1 1 5E34B2C5
P 1450 5150
F 0 "#PWR02" H 1450 4900 50  0001 C CNN
F 1 "GND" H 1455 4977 50  0000 C CNN
F 2 "" H 1450 5150 50  0001 C CNN
F 3 "" H 1450 5150 50  0001 C CNN
	1    1450 5150
	0    1    1    0   
$EndComp
Wire Wire Line
	1450 5150 1550 5150
Wire Wire Line
	1550 5150 1550 5100
Wire Wire Line
	1550 5150 1550 5200
Connection ~ 1550 5150
$Comp
L power:+5V #PWR08
U 1 1 5E357FC3
P 3600 4600
F 0 "#PWR08" H 3600 4450 50  0001 C CNN
F 1 "+5V" H 3615 4773 50  0000 C CNN
F 2 "" H 3600 4600 50  0001 C CNN
F 3 "" H 3600 4600 50  0001 C CNN
	1    3600 4600
	0    1    1    0   
$EndComp
$Comp
L power:GND #PWR07
U 1 1 5E3584A2
P 3550 5150
F 0 "#PWR07" H 3550 4900 50  0001 C CNN
F 1 "GND" H 3555 4977 50  0000 C CNN
F 2 "" H 3550 5150 50  0001 C CNN
F 3 "" H 3550 5150 50  0001 C CNN
	1    3550 5150
	0    -1   -1   0   
$EndComp
Wire Wire Line
	3050 4600 3050 4650
Wire Wire Line
	3600 4600 3350 4600
Wire Wire Line
	3050 4600 3050 4550
Connection ~ 3050 4600
$Comp
L Device:C C4
U 1 1 5E36E165
P 3350 4900
F 0 "C4" V 3550 4900 50  0000 C CNN
F 1 "100uF" V 3189 4900 50  0000 C CNN
F 2 "Capacitor_THT:C_Radial_D6.3mm_H5.0mm_P2.50mm" H 3388 4750 50  0001 C CNN
F 3 "~" H 3350 4900 50  0001 C CNN
	1    3350 4900
	-1   0    0    1   
$EndComp
Wire Wire Line
	3350 4750 3350 4600
Connection ~ 3350 4600
Wire Wire Line
	3350 4600 3050 4600
Connection ~ 3350 5150
Wire Wire Line
	3350 5050 3350 5150
Wire Wire Line
	3550 5150 3350 5150
$Comp
L power:+5V #PWR021
U 1 1 5E1C9D90
P 7950 5400
F 0 "#PWR021" H 7950 5250 50  0001 C CNN
F 1 "+5V" V 7965 5528 50  0000 L CNN
F 2 "" H 7950 5400 50  0001 C CNN
F 3 "" H 7950 5400 50  0001 C CNN
	1    7950 5400
	0    -1   -1   0   
$EndComp
Wire Wire Line
	7950 5400 8100 5400
$Comp
L power:GND #PWR022
U 1 1 5E1CD69D
P 7950 5600
F 0 "#PWR022" H 7950 5350 50  0001 C CNN
F 1 "GND" V 7955 5472 50  0000 R CNN
F 2 "" H 7950 5600 50  0001 C CNN
F 3 "" H 7950 5600 50  0001 C CNN
	1    7950 5600
	0    1    1    0   
$EndComp
Wire Wire Line
	7950 5600 8100 5600
Wire Wire Line
	7900 5700 8100 5700
Wire Wire Line
	7900 5800 8100 5800
Wire Wire Line
	5200 3250 5650 3250
Wire Wire Line
	5200 3350 5650 3350
$Comp
L Connector_Generic:Conn_01x03 J8
U 1 1 5E222714
P 10150 5500
F 0 "J8" H 10230 5542 50  0000 L CNN
F 1 "UART_RADIO_HEAD" H 10230 5451 50  0000 L CNN
F 2 "Connector_PinHeader_2.54mm:PinHeader_1x03_P2.54mm_Vertical" H 10150 5500 50  0001 C CNN
F 3 "~" H 10150 5500 50  0001 C CNN
	1    10150 5500
	1    0    0    -1  
$EndComp
$Comp
L power:GND #PWR028
U 1 1 5E22372A
P 9850 5600
F 0 "#PWR028" H 9850 5350 50  0001 C CNN
F 1 "GND" V 9855 5472 50  0000 R CNN
F 2 "" H 9850 5600 50  0001 C CNN
F 3 "" H 9850 5600 50  0001 C CNN
	1    9850 5600
	0    1    1    0   
$EndComp
$Comp
L power:+5V #PWR027
U 1 1 5E223CE3
P 9850 5500
F 0 "#PWR027" H 9850 5350 50  0001 C CNN
F 1 "+5V" V 9865 5628 50  0000 L CNN
F 2 "" H 9850 5500 50  0001 C CNN
F 3 "" H 9850 5500 50  0001 C CNN
	1    9850 5500
	0    -1   -1   0   
$EndComp
Wire Wire Line
	9850 5500 9950 5500
Wire Wire Line
	9850 5600 9950 5600
Wire Wire Line
	9300 5400 9950 5400
Wire Wire Line
	7450 2850 6750 2850
$Comp
L Device:R R2
U 1 1 5E2BCCEB
P 4500 3200
F 0 "R2" V 4293 3200 50  0000 C CNN
F 1 "1K" V 4384 3200 50  0000 C CNN
F 2 "Resistor_SMD:R_0805_2012Metric_Pad1.15x1.40mm_HandSolder" V 4430 3200 50  0001 C CNN
F 3 "~" H 4500 3200 50  0001 C CNN
	1    4500 3200
	0    1    1    0   
$EndComp
$Comp
L Device:LED_Small D3
U 1 1 5E2BD8E7
P 4250 3200
F 0 "D3" H 4250 3435 50  0000 C CNN
F 1 "LED_1" H 4250 3344 50  0000 C CNN
F 2 "LED_SMD:LED_0805_2012Metric_Pad1.15x1.40mm_HandSolder" V 4250 3200 50  0001 C CNN
F 3 "~" V 4250 3200 50  0001 C CNN
	1    4250 3200
	1    0    0    -1  
$EndComp
$Comp
L power:GND #PWR09
U 1 1 5E2CC1C2
P 4150 3200
F 0 "#PWR09" H 4150 2950 50  0001 C CNN
F 1 "GND" V 4155 3072 50  0000 R CNN
F 2 "" H 4150 3200 50  0001 C CNN
F 3 "" H 4150 3200 50  0001 C CNN
	1    4150 3200
	0    1    1    0   
$EndComp
Wire Wire Line
	4650 3200 4650 2950
Wire Wire Line
	4650 2950 5650 2950
NoConn ~ 8100 5500
NoConn ~ 8100 5900
NoConn ~ 8100 6000
NoConn ~ 8100 6100
$Comp
L Connector_Generic:Conn_01x02 J1
U 1 1 5E3A683E
P 1900 4550
F 0 "J1" H 1900 4800 50  0000 L CNN
F 1 "BUCK_VIN_HEAD" H 1650 4700 50  0000 L CNN
F 2 "Connector_PinHeader_2.54mm:PinHeader_1x02_P2.54mm_Vertical" H 1900 4550 50  0001 C CNN
F 3 "~" H 1900 4550 50  0001 C CNN
	1    1900 4550
	1    0    0    -1  
$EndComp
$Comp
L Connector_Generic:Conn_01x02 J2
U 1 1 5E3B8600
P 1900 5100
F 0 "J2" H 1850 4750 50  0000 L CNN
F 1 "BUCK_GND_IN_HEAD" H 1550 4850 50  0000 L CNN
F 2 "Connector_PinHeader_2.54mm:PinHeader_1x02_P2.54mm_Vertical" H 1900 5100 50  0001 C CNN
F 3 "~" H 1900 5100 50  0001 C CNN
	1    1900 5100
	1    0    0    -1  
$EndComp
$Comp
L Connector_Generic:Conn_01x02 J4
U 1 1 5E3BBA9D
P 2750 5200
F 0 "J4" H 2750 5500 50  0000 C CNN
F 1 "BUCK_GND_OUT_HEAD" H 2700 5350 50  0000 C CNN
F 2 "Connector_PinHeader_2.54mm:PinHeader_1x02_P2.54mm_Vertical" H 2750 5200 50  0001 C CNN
F 3 "~" H 2750 5200 50  0001 C CNN
	1    2750 5200
	-1   0    0    1   
$EndComp
$Comp
L Connector_Generic:Conn_01x02 J3
U 1 1 5E3E03A8
P 2750 4650
F 0 "J3" H 2750 4300 50  0000 C CNN
F 1 "BUCK_5V_HEAD" H 2750 4400 50  0000 C CNN
F 2 "Connector_PinHeader_2.54mm:PinHeader_1x02_P2.54mm_Vertical" H 2750 4650 50  0001 C CNN
F 3 "~" H 2750 4650 50  0001 C CNN
	1    2750 4650
	-1   0    0    1   
$EndComp
Wire Wire Line
	1550 5100 1700 5100
Wire Wire Line
	1550 5200 1700 5200
Wire Wire Line
	3050 4550 2950 4550
Wire Wire Line
	3050 4650 2950 4650
Wire Wire Line
	2950 5100 3050 5100
Wire Wire Line
	3050 5200 2950 5200
Wire Wire Line
	3050 5100 3050 5150
Connection ~ 3050 5150
Wire Wire Line
	3050 5150 3050 5200
Wire Wire Line
	3050 5150 3350 5150
$Comp
L Connector_Generic:Conn_01x08 J6
U 1 1 5E4A092C
P 8300 5700
F 0 "J6" H 8380 5692 50  0000 L CNN
F 1 "GY-86_HEAD" H 8380 5601 50  0000 L CNN
F 2 "Connector_PinHeader_2.54mm:PinHeader_1x08_P2.54mm_Vertical" H 8300 5700 50  0001 C CNN
F 3 "~" H 8300 5700 50  0001 C CNN
	1    8300 5700
	1    0    0    -1  
$EndComp
Text Label 7450 2850 2    50   ~ 0
USART1_UC_RX
Text Label 9300 5400 0    50   ~ 0
USART1_UC_RX
Text Label 8200 4200 0    50   ~ 0
SWCLK
Text Label 7450 3250 2    50   ~ 0
SWCLK
Text Label 7450 3150 2    50   ~ 0
SWDIO
Text Label 8200 4400 0    50   ~ 0
SWDIO
Text Label 8200 4500 0    50   ~ 0
NRST
Text Label 4100 1550 0    50   ~ 0
NRST
Text Label 7900 5700 0    50   ~ 0
SCL
Text Label 7900 5800 0    50   ~ 0
SDA
Text Label 5200 3250 0    50   ~ 0
SCL
Text Label 5200 3350 0    50   ~ 0
SDA
Wire Wire Line
	4700 1550 4100 1550
Connection ~ 4700 1550
Text Label 7450 2450 2    50   ~ 0
TIM3_CH_1
Wire Wire Line
	6750 2450 7450 2450
Text Label 7450 2250 2    50   ~ 0
TIM3_CH_2
Wire Wire Line
	7450 2250 6750 2250
Text Label 5150 2750 0    50   ~ 0
TIM3_CH_3
Wire Wire Line
	5150 2750 5650 2750
Text Label 5150 2850 0    50   ~ 0
TIM3_CH_4
Wire Wire Line
	5150 2850 5650 2850
Text Label 7150 5900 2    50   ~ 0
TIM3_CH_1
Wire Wire Line
	7150 5900 6700 5900
Text Label 7150 5800 2    50   ~ 0
TIM3_CH_2
Wire Wire Line
	7150 5800 6700 5800
Text Label 7150 5700 2    50   ~ 0
TIM3_CH_3
Wire Wire Line
	7150 5700 6700 5700
Text Label 7150 5600 2    50   ~ 0
TIM3_CH_4
Wire Wire Line
	7150 5600 6700 5600
NoConn ~ 6750 3350
NoConn ~ 6750 3050
NoConn ~ 6750 2750
NoConn ~ 6750 2550
NoConn ~ 6750 2350
Text Label 7450 2050 2    50   ~ 0
USART2_UC_TX
Wire Wire Line
	7450 2050 6750 2050
Text Label 7450 2150 2    50   ~ 0
USART2_UC_RX
Wire Wire Line
	7450 2150 6750 2150
Text Label 7150 5400 2    50   ~ 0
TIM2_CH_2
Text Label 7150 5500 2    50   ~ 0
TIM2_CH_1
Wire Wire Line
	6700 5400 7150 5400
Wire Wire Line
	6700 5500 7150 5500
Wire Wire Line
	6350 1350 6350 1550
Wire Wire Line
	6350 1350 6250 1350
Wire Wire Line
	4700 1050 4700 1150
Text Label 7450 1850 2    50   ~ 0
TIM2_CH_1
Wire Wire Line
	7450 1850 6750 1850
Text Label 7450 1950 2    50   ~ 0
TIM2_CH_2
Wire Wire Line
	7450 1950 6750 1950
Text Label 7450 2950 2    50   ~ 0
TIM1_CH_4
Wire Wire Line
	7450 2950 6750 2950
Text Label 7450 2650 2    50   ~ 0
TIM1_CH_1
Wire Wire Line
	7450 2650 6750 2650
$Comp
L Device:R R3
U 1 1 5E401D60
P 4500 3600
F 0 "R3" V 4293 3600 50  0000 C CNN
F 1 "1K" V 4384 3600 50  0000 C CNN
F 2 "Resistor_SMD:R_0805_2012Metric_Pad1.15x1.40mm_HandSolder" V 4430 3600 50  0001 C CNN
F 3 "~" H 4500 3600 50  0001 C CNN
	1    4500 3600
	0    1    1    0   
$EndComp
$Comp
L Device:LED_Small D4
U 1 1 5E401D66
P 4250 3600
F 0 "D4" H 4250 3835 50  0000 C CNN
F 1 "LED_2" H 4250 3744 50  0000 C CNN
F 2 "LED_SMD:LED_0805_2012Metric_Pad1.15x1.40mm_HandSolder" V 4250 3600 50  0001 C CNN
F 3 "~" V 4250 3600 50  0001 C CNN
	1    4250 3600
	1    0    0    -1  
$EndComp
$Comp
L power:GND #PWR010
U 1 1 5E401D6C
P 4150 3600
F 0 "#PWR010" H 4150 3350 50  0001 C CNN
F 1 "GND" V 4155 3472 50  0000 R CNN
F 2 "" H 4150 3600 50  0001 C CNN
F 3 "" H 4150 3600 50  0001 C CNN
	1    4150 3600
	0    1    1    0   
$EndComp
$Comp
L Device:R R4
U 1 1 5E4188C4
P 4500 4000
F 0 "R4" V 4293 4000 50  0000 C CNN
F 1 "1K" V 4384 4000 50  0000 C CNN
F 2 "Resistor_SMD:R_0805_2012Metric_Pad1.15x1.40mm_HandSolder" V 4430 4000 50  0001 C CNN
F 3 "~" H 4500 4000 50  0001 C CNN
	1    4500 4000
	0    1    1    0   
$EndComp
$Comp
L Device:LED_Small D5
U 1 1 5E4188CA
P 4250 4000
F 0 "D5" H 4250 4235 50  0000 C CNN
F 1 "LED_3" H 4250 4144 50  0000 C CNN
F 2 "LED_SMD:LED_0805_2012Metric_Pad1.15x1.40mm_HandSolder" V 4250 4000 50  0001 C CNN
F 3 "~" V 4250 4000 50  0001 C CNN
	1    4250 4000
	1    0    0    -1  
$EndComp
$Comp
L power:GND #PWR011
U 1 1 5E4188D0
P 4150 4000
F 0 "#PWR011" H 4150 3750 50  0001 C CNN
F 1 "GND" V 4155 3872 50  0000 R CNN
F 2 "" H 4150 4000 50  0001 C CNN
F 3 "" H 4150 4000 50  0001 C CNN
	1    4150 4000
	0    1    1    0   
$EndComp
Wire Wire Line
	5650 3050 4750 3050
Wire Wire Line
	4750 3050 4750 3600
Wire Wire Line
	4750 3600 4650 3600
Wire Wire Line
	5650 3150 4900 3150
Wire Wire Line
	4900 3150 4900 4000
Wire Wire Line
	4900 4000 4650 4000
Wire Wire Line
	5350 1550 4700 1550
$Comp
L Connector_Generic:Conn_01x02 J9
U 1 1 5E5B3DE3
P 10150 6000
F 0 "J9" H 10230 5992 50  0000 L CNN
F 1 "USART_PI_HEAD" H 10230 5901 50  0000 L CNN
F 2 "Connector_PinHeader_2.54mm:PinHeader_1x02_P2.54mm_Vertical" H 10150 6000 50  0001 C CNN
F 3 "~" H 10150 6000 50  0001 C CNN
	1    10150 6000
	1    0    0    -1  
$EndComp
Text Label 9300 6000 0    50   ~ 0
USART2_UC_TX
Wire Wire Line
	9300 6000 9950 6000
Text Label 9300 6100 0    50   ~ 0
USART2_UC_RX
Wire Wire Line
	9300 6100 9950 6100
$Comp
L Regulator_Linear:LD1117S33TR_SOT223 U1
U 1 1 5E66637C
P 3450 6300
F 0 "U1" H 3450 6542 50  0000 C CNN
F 1 "LD1117S33TR_SOT223" H 3450 6451 50  0000 C CNN
F 2 "Package_TO_SOT_SMD:SOT-223-3_TabPin2" H 3450 6500 50  0001 C CNN
F 3 "http://www.st.com/st-web-ui/static/active/en/resource/technical/document/datasheet/CD00000544.pdf" H 3550 6050 50  0001 C CNN
	1    3450 6300
	1    0    0    -1  
$EndComp
Wire Wire Line
	2900 6300 2900 6550
Wire Wire Line
	3450 7200 3450 7050
Wire Wire Line
	3900 6300 4300 6300
$Comp
L Device:C C3
U 1 1 5E2DD6AC
P 2900 6700
F 0 "C3" H 3015 6746 50  0000 L CNN
F 1 "100nF" H 3015 6655 50  0000 L CNN
F 2 "Capacitor_SMD:C_0805_2012Metric_Pad1.15x1.40mm_HandSolder" H 2938 6550 50  0001 C CNN
F 3 "~" H 2900 6700 50  0001 C CNN
	1    2900 6700
	1    0    0    -1  
$EndComp
Wire Wire Line
	2900 6850 2900 7050
Wire Wire Line
	2900 7050 3450 7050
Wire Wire Line
	2900 6300 3150 6300
Wire Wire Line
	2300 7100 2300 7150
Wire Wire Line
	2300 6800 2300 6900
$Comp
L Device:R R1
U 1 1 5E2B5814
P 2300 6650
F 0 "R1" H 2370 6696 50  0000 L CNN
F 1 "1K" H 2370 6605 50  0000 L CNN
F 2 "Resistor_SMD:R_0805_2012Metric_Pad1.15x1.40mm_HandSolder" V 2230 6650 50  0001 C CNN
F 3 "~" H 2300 6650 50  0001 C CNN
	1    2300 6650
	1    0    0    -1  
$EndComp
Wire Wire Line
	1300 6300 1600 6300
$Comp
L power:GND #PWR05
U 1 1 5E2AFB27
P 2300 7150
F 0 "#PWR05" H 2300 6900 50  0001 C CNN
F 1 "GND" H 2305 6977 50  0000 C CNN
F 2 "" H 2300 7150 50  0001 C CNN
F 3 "" H 2300 7150 50  0001 C CNN
	1    2300 7150
	1    0    0    -1  
$EndComp
$Comp
L Device:LED_Small D2
U 1 1 5E2AF0D8
P 2300 7000
F 0 "D2" V 2346 6932 50  0000 R CNN
F 1 "LED_POW" V 2255 6932 50  0000 R CNN
F 2 "LED_SMD:LED_0805_2012Metric_Pad1.15x1.40mm_HandSolder" V 2300 7000 50  0001 C CNN
F 3 "~" V 2300 7000 50  0001 C CNN
	1    2300 7000
	0    -1   -1   0   
$EndComp
$Comp
L pspice:DIODE D1
U 1 1 5E2AE456
P 1800 6300
F 0 "D1" H 1800 6565 50  0000 C CNN
F 1 "DIODE" H 1800 6474 50  0000 C CNN
F 2 "Diode_SMD:D_0805_2012Metric_Pad1.15x1.40mm_HandSolder" H 1800 6300 50  0001 C CNN
F 3 "~" H 1800 6300 50  0001 C CNN
	1    1800 6300
	1    0    0    -1  
$EndComp
$Comp
L power:+5V #PWR01
U 1 1 5E2AD7CC
P 1300 6300
F 0 "#PWR01" H 1300 6150 50  0001 C CNN
F 1 "+5V" H 1315 6473 50  0000 C CNN
F 2 "" H 1300 6300 50  0001 C CNN
F 3 "" H 1300 6300 50  0001 C CNN
	1    1300 6300
	0    -1   -1   0   
$EndComp
Wire Wire Line
	2000 6300 2300 6300
Wire Wire Line
	2900 6300 2300 6300
Connection ~ 2900 6300
Connection ~ 2300 6300
Wire Wire Line
	2300 6300 2300 6500
Text Label 7150 5300 2    50   ~ 0
TIM1_CH_1
Text Label 7150 5200 2    50   ~ 0
TIM1_CH_4
Wire Wire Line
	7150 5200 6700 5200
Wire Wire Line
	7150 5300 6700 5300
$Comp
L Device:R R5
U 1 1 5E177ECA
P 5100 2050
F 0 "R5" V 4893 2050 50  0000 C CNN
F 1 "10K" V 4984 2050 50  0000 C CNN
F 2 "Resistor_SMD:R_0805_2012Metric_Pad1.15x1.40mm_HandSolder" V 5030 2050 50  0001 C CNN
F 3 "~" H 5100 2050 50  0001 C CNN
	1    5100 2050
	0    1    1    0   
$EndComp
$Comp
L Servo:Conn_srv_03x08 J5
U 1 1 5E2B84A0
P 6500 5600
F 0 "J5" H 6500 6200 50  0000 C CNN
F 1 "SRV_HEAD_03x08" H 6350 6100 50  0000 C CNN
F 2 "Servo:SRV_03x08" H 6500 5600 50  0001 C CNN
F 3 "" H 6500 5600 50  0001 C CNN
	1    6500 5600
	-1   0    0    1   
$EndComp
$Comp
L Connector:Conn_01x01_Male J11
U 1 1 5E32B2F3
P 1050 4600
F 0 "J11" H 1158 4781 50  0000 C CNN
F 1 "BAT_PAD_VIN" H 1158 4690 50  0000 C CNN
F 2 "TestPoint:TestPoint_Pad_4.0x4.0mm" H 1050 4600 50  0001 C CNN
F 3 "~" H 1050 4600 50  0001 C CNN
	1    1050 4600
	1    0    0    -1  
$EndComp
Wire Wire Line
	1700 4650 1250 4650
Wire Wire Line
	1250 4650 1250 4600
Wire Wire Line
	1700 4550 1250 4550
Wire Wire Line
	1250 4550 1250 4600
Connection ~ 1250 4600
$Comp
L Connector:Conn_01x01_Male J10
U 1 1 5E33A69B
P 950 5500
F 0 "J10" H 1058 5681 50  0000 C CNN
F 1 "BAT_PAD_GND" H 1058 5590 50  0000 C CNN
F 2 "TestPoint:TestPoint_Pad_4.0x4.0mm" H 950 5500 50  0001 C CNN
F 3 "~" H 950 5500 50  0001 C CNN
	1    950  5500
	1    0    0    -1  
$EndComp
Wire Wire Line
	1150 5500 1550 5500
Wire Wire Line
	1550 5500 1550 5200
Connection ~ 1550 5200
$EndSCHEMATC
